0, 0
0.000110791, 0.504107
0.000221582, 0.531828
0.000332373, 0.64271
0.000443164, 0.675565
0.000553955, 0.708419
0.000664746, 0.720739
0.000775537, 0.74846
0.000997119, 0.76386
0.0012187, 0.783368
0.00144028, 0.809035
0.00166187, 0.825462
0.00188345, 0.845996
0.00221582, 0.861396
0.00265899, 0.873717
0.00310215, 0.88193
0.00343452, 0.889117
0.00398848, 0.894251
0.00443164, 0.907598
0.00509639, 0.911704
0.00553955, 0.917865
0.0062043, 0.924025
0.00675825, 0.929158
0.00753379, 0.932238
0.00842012, 0.935318
0.00930645, 0.937372
0.0101928, 0.941478
0.0108575, 0.945585
0.0116331, 0.948665
0.0126302, 0.949692
0.0135165, 0.951745
0.0140705, 0.956879
0.0150676, 0.957906
0.0160647, 0.958932
0.0171726, 0.958932
0.0180589, 0.960986
0.0191669, 0.960986
0.020164, 0.962012
0.0211611, 0.965092
0.0220474, 0.967146
0.0231553, 0.967146
0.0241524, 0.968172
0.0251496, 0.969199
0.0259251, 0.972279
0.027033, 0.972279
0.0279193, 0.974333
0.0290273, 0.974333
0.0301352, 0.974333
0.0312431, 0.974333
0.0321294, 0.976386
0.0331265, 0.977413
0.0341236, 0.978439
0.0352316, 0.978439
0.0363395, 0.978439
0.0374474, 0.978439
0.0385553, 0.978439
0.0396632, 0.978439
0.0406603, 0.979466
0.0417682, 0.979466
0.0428761, 0.979466
0.043984, 0.979466
0.045092, 0.979466
0.0461999, 0.979466
0.0473078, 0.979466
0.0484157, 0.979466
0.0495236, 0.979466
0.0506315, 0.979466
0.0517394, 0.979466
0.0527365, 0.980493
0.0538444, 0.980493
0.0549524, 0.980493
0.0560603, 0.980493
0.0571682, 0.980493
0.0581653, 0.98152
0.0592732, 0.98152
0.0603811, 0.98152
0.061489, 0.98152
0.0625969, 0.98152
0.0637049, 0.98152
0.0648128, 0.98152
0.0659207, 0.98152
0.0670286, 0.98152
0.0681365, 0.98152
0.0692444, 0.98152
0.0703523, 0.98152
0.0714602, 0.98152
0.0725681, 0.98152
0.073676, 0.98152
0.074784, 0.98152
0.0758919, 0.98152
0.0769998, 0.98152
0.0781077, 0.98152
0.0792156, 0.98152
0.0802127, 0.982546
0.0813206, 0.982546
0.0824285, 0.982546
0.0834257, 0.983573
0.0845336, 0.983573
0.0856415, 0.983573
0.0867494, 0.983573
0.0878573, 0.983573
0.0889652, 0.983573
0.0900731, 0.9846
0.091181, 0.9846
0.0921782, 0.985626
0.0931753, 0.986653
0.0942832, 0.986653
0.0953911, 0.986653
0.096499, 0.986653
0.0976069, 0.986653
0.0987148, 0.986653
0.0998227, 0.986653
0.100931, 0.986653
0.102039, 0.986653
0.103146, 0.986653
0.104254, 0.986653
0.105362, 0.986653
0.10647, 0.986653
0.107578, 0.986653
0.108686, 0.986653
0.109794, 0.986653
0.110902, 0.986653
0.11201, 0.986653
0.113118, 0.986653
0.114226, 0.986653
0.115333, 0.986653
0.116441, 0.986653
0.117549, 0.986653
0.118657, 0.986653
0.119765, 0.986653
0.120873, 0.986653
0.121981, 0.986653
0.123089, 0.986653
0.124197, 0.986653
0.125305, 0.986653
0.126413, 0.986653
0.127521, 0.986653
0.128628, 0.986653
0.129736, 0.986653
0.130844, 0.986653
0.131952, 0.986653
0.13306, 0.986653
0.134168, 0.986653
0.135165, 0.98768
0.136273, 0.98768
0.137381, 0.98768
0.138378, 0.988706
0.139486, 0.988706
0.140594, 0.988706
0.141702, 0.988706
0.14281, 0.988706
0.143918, 0.988706
0.145025, 0.988706
0.146133, 0.988706
0.147241, 0.988706
0.148349, 0.988706
0.149457, 0.988706
0.150565, 0.988706
0.151673, 0.988706
0.152781, 0.988706
0.153889, 0.988706
0.154997, 0.988706
0.156105, 0.988706
0.157212, 0.989733
0.15832, 0.989733
0.159428, 0.989733
0.160536, 0.989733
0.161644, 0.989733
0.162752, 0.989733
0.16386, 0.989733
0.164968, 0.989733
0.165965, 0.99076
0.167073, 0.99076
0.168181, 0.99076
0.169289, 0.99076
0.170397, 0.99076
0.171505, 0.99076
0.172612, 0.99076
0.17372, 0.99076
0.174828, 0.99076
0.175936, 0.99076
0.176933, 0.991786
0.178041, 0.991786
0.179149, 0.991786
0.180257, 0.991786
0.181365, 0.991786
0.182473, 0.991786
0.183581, 0.991786
0.184689, 0.991786
0.185797, 0.991786
0.186905, 0.991786
0.188012, 0.991786
0.18912, 0.991786
0.190228, 0.991786
0.191336, 0.991786
0.192444, 0.991786
0.193552, 0.991786
0.19466, 0.991786
0.195768, 0.991786
0.196876, 0.991786
0.197984, 0.991786
0.199092, 0.991786
0.200199, 0.991786
0.201307, 0.991786
0.202415, 0.991786
0.203523, 0.991786
0.204631, 0.991786
0.205739, 0.991786
0.206847, 0.991786
0.207955, 0.991786
0.209063, 0.991786
0.210171, 0.991786
0.211279, 0.991786
0.212386, 0.991786
0.213494, 0.991786
0.214602, 0.991786
0.215599, 0.992813
0.216707, 0.992813
0.217815, 0.992813
0.218923, 0.992813
0.220031, 0.992813
0.221139, 0.992813
0.222247, 0.992813
0.223355, 0.992813
0.224463, 0.992813
0.225571, 0.992813
0.226678, 0.992813
0.227676, 0.99384
0.228784, 0.99384
0.229891, 0.99384
0.230889, 0.994867
0.231996, 0.994867
0.233104, 0.994867
0.234212, 0.994867
0.23532, 0.994867
0.236428, 0.994867
0.237536, 0.994867
0.238644, 0.994867
0.239752, 0.994867
0.24086, 0.994867
0.241968, 0.994867
0.243076, 0.994867
0.244183, 0.994867
0.245291, 0.994867
0.246399, 0.994867
0.247507, 0.994867
0.248615, 0.994867
0.249723, 0.994867
0.250831, 0.994867
0.251939, 0.994867
0.253047, 0.994867
0.254155, 0.994867
0.255263, 0.994867
0.25637, 0.994867
0.257478, 0.994867
0.258586, 0.994867
0.259694, 0.994867
0.260802, 0.994867
0.26191, 0.994867
0.263018, 0.994867
0.264015, 0.995893
0.265123, 0.995893
0.266231, 0.995893
0.267339, 0.995893
0.268447, 0.995893
0.269555, 0.995893
0.270663, 0.995893
0.27177, 0.995893
0.272878, 0.995893
0.273986, 0.995893
0.275094, 0.995893
0.276202, 0.995893
0.27731, 0.995893
0.278418, 0.995893
0.279526, 0.995893
0.280634, 0.995893
0.281742, 0.995893
0.28285, 0.995893
0.283957, 0.995893
0.285065, 0.995893
0.286173, 0.995893
0.287281, 0.995893
0.288389, 0.995893
0.289497, 0.995893
0.290605, 0.995893
0.291713, 0.995893
0.292821, 0.995893
0.293929, 0.995893
0.295037, 0.995893
0.296144, 0.995893
0.297252, 0.995893
0.29836, 0.995893
0.299468, 0.995893
0.300576, 0.995893
0.301684, 0.995893
0.302792, 0.995893
0.3039, 0.995893
0.305008, 0.995893
0.306116, 0.995893
0.307224, 0.995893
0.308331, 0.995893
0.309439, 0.995893
0.310547, 0.995893
0.311655, 0.995893
0.312763, 0.995893
0.313871, 0.995893
0.314979, 0.995893
0.316087, 0.995893
0.317195, 0.995893
0.318303, 0.995893
0.319411, 0.995893
0.320518, 0.995893
0.321626, 0.995893
0.322624, 0.99692
0.323731, 0.99692
0.324839, 0.99692
0.325947, 0.99692
0.326944, 0.997947
0.328052, 0.997947
0.32916, 0.997947
0.330268, 0.997947
0.331376, 0.997947
0.332484, 0.997947
0.333592, 0.997947
0.3347, 0.997947
0.335808, 0.997947
0.336916, 0.997947
0.338023, 0.997947
0.339131, 0.997947
0.340239, 0.997947
0.341347, 0.997947
0.342455, 0.997947
0.343563, 0.997947
0.344671, 0.997947
0.345779, 0.997947
0.346887, 0.997947
0.347995, 0.997947
0.349103, 0.997947
0.350211, 0.997947
0.351318, 0.997947
0.352426, 0.997947
0.353534, 0.997947
0.354642, 0.997947
0.35575, 0.997947
0.356858, 0.997947
0.357966, 0.997947
0.359074, 0.997947
0.360182, 0.997947
0.36129, 0.997947
0.362398, 0.997947
0.363505, 0.997947
0.364613, 0.997947
0.365721, 0.997947
0.366829, 0.997947
0.367937, 0.997947
0.369045, 0.997947
0.370153, 0.997947
0.371261, 0.997947
0.372369, 0.997947
0.373477, 0.997947
0.374585, 0.997947
0.375692, 0.997947
0.3768, 0.997947
0.377908, 0.997947
0.379016, 0.997947
0.380124, 0.997947
0.381232, 0.997947
0.38234, 0.997947
0.383448, 0.997947
0.384556, 0.997947
0.385664, 0.997947
0.386772, 0.997947
0.387879, 0.997947
0.388987, 0.997947
0.390095, 0.997947
0.391203, 0.997947
0.392311, 0.997947
0.393419, 0.997947
0.394527, 0.997947
0.395635, 0.997947
0.396743, 0.997947
0.397851, 0.997947
0.398959, 0.997947
0.400066, 0.997947
0.401174, 0.997947
0.402282, 0.997947
0.40339, 0.997947
0.404498, 0.997947
0.405606, 0.997947
0.406714, 0.997947
0.407822, 0.997947
0.40893, 0.997947
0.410038, 0.997947
0.411146, 0.997947
0.412253, 0.997947
0.413361, 0.997947
0.414469, 0.997947
0.415577, 0.997947
0.416685, 0.997947
0.417793, 0.997947
0.418901, 0.997947
0.420009, 0.997947
0.421117, 0.997947
0.422225, 0.997947
0.423333, 0.997947
0.424441, 0.997947
0.425548, 0.997947
0.426656, 0.997947
0.427764, 0.997947
0.428872, 0.997947
0.42998, 0.997947
0.431088, 0.997947
0.432196, 0.997947
0.433304, 0.997947
0.434412, 0.997947
0.43552, 0.997947
0.436628, 0.997947
0.437735, 0.997947
0.438843, 0.997947
0.439951, 0.997947
0.441059, 0.997947
0.442167, 0.997947
0.443275, 0.997947
0.444383, 0.997947
0.445491, 0.997947
0.446599, 0.997947
0.447707, 0.997947
0.448815, 0.997947
0.449922, 0.997947
0.45103, 0.997947
0.452138, 0.997947
0.453246, 0.997947
0.454354, 0.997947
0.455462, 0.997947
0.45657, 0.997947
0.457678, 0.997947
0.458786, 0.997947
0.459894, 0.997947
0.461002, 0.997947
0.462109, 0.997947
0.463217, 0.997947
0.464325, 0.997947
0.465433, 0.997947
0.466541, 0.997947
0.467649, 0.997947
0.468757, 0.997947
0.469865, 0.997947
0.470973, 0.997947
0.472081, 0.997947
0.473189, 0.997947
0.474296, 0.997947
0.475404, 0.997947
0.476512, 0.997947
0.47762, 0.997947
0.478728, 0.997947
0.479836, 0.997947
0.480944, 0.997947
0.482052, 0.997947
0.48316, 0.997947
0.484268, 0.997947
0.485376, 0.997947
0.486483, 0.997947
0.487591, 0.997947
0.488699, 0.997947
0.489807, 0.997947
0.490915, 0.997947
0.492023, 0.997947
0.493131, 0.997947
0.494239, 0.997947
0.495347, 0.997947
0.496455, 0.997947
0.497563, 0.997947
0.498671, 0.997947
0.499778, 0.997947
0.500886, 0.997947
0.501994, 0.997947
0.503102, 0.997947
0.50421, 0.997947
0.505318, 0.997947
0.506426, 0.997947
0.507534, 0.997947
0.508642, 0.997947
0.50975, 0.997947
0.510858, 0.997947
0.511965, 0.997947
0.513073, 0.997947
0.514181, 0.997947
0.515289, 0.997947
0.516397, 0.997947
0.517505, 0.997947
0.518613, 0.997947
0.519721, 0.997947
0.520829, 0.997947
0.521937, 0.997947
0.523045, 0.997947
0.524152, 0.997947
0.52526, 0.997947
0.526368, 0.997947
0.527476, 0.997947
0.528584, 0.997947
0.529581, 0.998973
0.530689, 0.998973
0.531797, 0.998973
0.532905, 0.998973
0.534013, 0.998973
0.535121, 0.998973
0.536229, 0.998973
0.537337, 0.998973
0.538445, 0.998973
0.539552, 0.998973
0.54066, 0.998973
0.541768, 0.998973
0.542876, 0.998973
0.543984, 0.998973
0.545092, 0.998973
0.5462, 1
0.547308, 1
0.548416, 1
0.549524, 1
0.550632, 1
0.551739, 1
0.552847, 1
0.553955, 1
0.555063, 1
0.556171, 1
0.557279, 1
0.558387, 1
0.559495, 1
0.560603, 1
0.561711, 1
0.562819, 1
0.563926, 1
0.565034, 1
0.566142, 1
0.56725, 1
0.568358, 1
0.569466, 1
0.570574, 1
0.571682, 1
0.57279, 1
0.573898, 1
0.575006, 1
0.576113, 1
0.577221, 1
0.578329, 1
0.579437, 1
0.580545, 1
0.581653, 1
0.582761, 1
0.583869, 1
0.584977, 1
0.586085, 1
0.587193, 1
0.5883, 1
0.589408, 1
0.590516, 1
0.591624, 1
0.592732, 1
0.59384, 1
0.594948, 1
0.596056, 1
0.597164, 1
0.598272, 1
0.59938, 1
0.600487, 1
0.601595, 1
0.602703, 1
0.603811, 1
0.604919, 1
0.606027, 1
0.607135, 1
0.608243, 1
0.609351, 1
0.610459, 1
0.611567, 1
0.612674, 1
0.613782, 1
0.61489, 1
0.615998, 1
0.617106, 1
0.618214, 1
0.619322, 1
0.62043, 1
0.621538, 1
0.622646, 1
0.623754, 1
0.624862, 1
0.625969, 1
0.627077, 1
0.628185, 1
0.629293, 1
0.630401, 1
0.631509, 1
0.632617, 1
0.633725, 1
0.634833, 1
0.635941, 1
0.637049, 1
0.638156, 1
0.639264, 1
0.640372, 1
0.64148, 1
0.642588, 1
0.643696, 1
0.644804, 1
0.645912, 1
0.64702, 1
0.648128, 1
0.649236, 1
0.650343, 1
0.651451, 1
0.652559, 1
0.653667, 1
0.654775, 1
0.655883, 1
0.656991, 1
0.658099, 1
0.659207, 1
0.660315, 1
0.661423, 1
0.66253, 1
0.663638, 1
0.664746, 1
0.665854, 1
0.666962, 1
0.66807, 1
0.669178, 1
0.670286, 1
0.671394, 1
0.672502, 1
0.67361, 1
0.674717, 1
0.675825, 1
0.676933, 1
0.678041, 1
0.679149, 1
0.680257, 1
0.681365, 1
0.682473, 1
0.683581, 1
0.684689, 1
0.685797, 1
0.686904, 1
0.688012, 1
0.68912, 1
0.690228, 1
0.691336, 1
0.692444, 1
0.693552, 1
0.69466, 1
0.695768, 1
0.696876, 1
0.697984, 1
0.699091, 1
0.700199, 1
0.701307, 1
0.702415, 1
0.703523, 1
0.704631, 1
0.705739, 1
0.706847, 1
0.707955, 1
0.709063, 1
0.710171, 1
0.711279, 1
0.712386, 1
0.713494, 1
0.714602, 1
0.71571, 1
0.716818, 1
0.717926, 1
0.719034, 1
0.720142, 1
0.72125, 1
0.722358, 1
0.723466, 1
0.724573, 1
0.725681, 1
0.726789, 1
0.727897, 1
0.729005, 1
0.730113, 1
0.731221, 1
0.732329, 1
0.733437, 1
0.734545, 1
0.735653, 1
0.73676, 1
0.737868, 1
0.738976, 1
0.740084, 1
0.741192, 1
0.7423, 1
0.743408, 1
0.744516, 1
0.745624, 1
0.746732, 1
0.74784, 1
0.748948, 1
0.750055, 1
0.751163, 1
0.752271, 1
0.753379, 1
0.754487, 1
0.755595, 1
0.756703, 1
0.757811, 1
0.758919, 1
0.760027, 1
0.761135, 1
0.762242, 1
0.76335, 1
0.764458, 1
0.765566, 1
0.766674, 1
0.767782, 1
0.76889, 1
0.769998, 1
0.771106, 1
0.772214, 1
0.773322, 1
0.774429, 1
0.775537, 1
0.776645, 1
0.777753, 1
0.778861, 1
0.779969, 1
0.781077, 1
0.782185, 1
0.783293, 1
0.784401, 1
0.785509, 1
0.786616, 1
0.787724, 1
0.788832, 1
0.78994, 1
0.791048, 1
0.792156, 1
0.793264, 1
0.794372, 1
0.79548, 1
0.796588, 1
0.797696, 1
0.798803, 1
0.799911, 1
0.801019, 1
0.802127, 1
0.803235, 1
0.804343, 1
0.805451, 1
0.806559, 1
0.807667, 1
0.808775, 1
0.809883, 1
0.81099, 1
0.812098, 1
0.813206, 1
0.814314, 1
0.815422, 1
0.81653, 1
0.817638, 1
0.818746, 1
0.819854, 1
0.820962, 1
0.82207, 1
0.823178, 1
0.824285, 1
0.825393, 1
0.826501, 1
0.827609, 1
0.828717, 1
0.829825, 1
0.830933, 1
0.832041, 1
0.833149, 1
0.834257, 1
0.835365, 1
0.836472, 1
0.83758, 1
0.838688, 1
0.839796, 1
0.840904, 1
0.842012, 1
0.84312, 1
0.844228, 1
0.845336, 1
0.846444, 1
0.847552, 1
0.848659, 1
0.849767, 1
0.850875, 1
0.851983, 1
0.853091, 1
0.854199, 1
0.855307, 1
0.856415, 1
0.857523, 1
0.858631, 1
0.859739, 1
0.860846, 1
0.861954, 1
0.863062, 1
0.86417, 1
0.865278, 1
0.866386, 1
0.867494, 1
0.868602, 1
0.86971, 1
0.870818, 1
0.871926, 1
0.873033, 1
0.874141, 1
0.875249, 1
0.876357, 1
0.877465, 1
0.878573, 1
0.879681, 1
0.880789, 1
0.881897, 1
0.883005, 1
0.884113, 1
0.88522, 1
0.886328, 1
0.887436, 1
0.888544, 1
0.889652, 1
0.89076, 1
0.891868, 1
0.892976, 1
0.894084, 1
0.895192, 1
0.8963, 1
0.897407, 1
0.898515, 1
0.899623, 1
0.900731, 1
0.901839, 1
0.902947, 1
0.904055, 1
0.905163, 1
0.906271, 1
0.907379, 1
0.908487, 1
0.909594, 1
0.910702, 1
0.91181, 1
0.912918, 1
0.914026, 1
0.915134, 1
0.916242, 1
0.91735, 1
0.918458, 1
0.919566, 1
0.920674, 1
0.921782, 1
0.922889, 1
0.923997, 1
0.925105, 1
0.926213, 1
0.927321, 1
0.928429, 1
0.929537, 1
0.930645, 1
0.931753, 1
0.932861, 1
0.933969, 1
0.935076, 1
0.936184, 1
0.937292, 1
0.9384, 1
0.939508, 1
0.940616, 1
0.941724, 1
0.942832, 1
0.94394, 1
0.945048, 1
0.946156, 1
0.947263, 1
0.948371, 1
0.949479, 1
0.950587, 1
0.951695, 1
0.952803, 1
0.953911, 1
0.955019, 1
0.956127, 1
0.957235, 1
0.958343, 1
0.95945, 1
0.960558, 1
0.961666, 1
0.962774, 1
0.963882, 1
0.96499, 1
0.966098, 1
0.967206, 1
0.968314, 1
0.969422, 1
0.97053, 1
0.971637, 1
0.972745, 1
0.973853, 1
0.974961, 1
0.976069, 1
0.977177, 1
0.978285, 1
0.979393, 1
0.980501, 1
0.981609, 1
0.982717, 1
0.983824, 1
0.984932, 1
0.98604, 1
0.987148, 1
0.988256, 1
0.989364, 1
0.990472, 1
0.99158, 1
0.992688, 1
0.993796, 1
0.994904, 1
0.996011, 1
0.997119, 1
0.998227, 1
0.999335, 1
